# ----------------------------------------------------------------------------
# Copyright 2024, Jeferson Lima, jefersonlima@utfpr.edu.br
# All Rights Reserved
# See LICENSE for the license information
# ----------------------------------------------------------------------------
#time 	k 	z
0	0	6.80375
0.018	1	-1.11234
0.036	2	7.66198
0.054	3	8.9688
0.072	4	12.2329
0.09	5	-1.04897
0.108	6	2.70446
0.126	7	12.3646
0.144	8	3.55549
0.162	9	10.0794
0.18	10	9.54794
0.198	11	13.5774
0.216	12	9.29569
0.234	13	13.268
0.252	14	23.0446
0.27	15	23.3239
0.288	16	18.7142
0.306	17	21.3459
0.324	18	10.8321
0.342	19	21.1394
0.36	20	10.326
0.378	21	15.8577
0.396	22	14.7446
0.414	23	29.0835
0.432	24	17.1336
0.45	25	23.0189
0.468	26	18.5958
0.486	27	19.1762
0.504	28	37.9785
0.522	29	23.3651
0.54	30	30.2586
0.558	31	37.7822
0.576	32	34.2528
0.594	33	28.9206
0.612	34	36.751
0.63	35	35.4857
0.648	36	35.8717
0.666	37	46.4555
0.684	38	33.8503
0.702	39	44.4272
0.72	40	40.5349
0.738	41	46.3983
0.756	42	40.0046
0.774	43	50.8306
0.792	44	39.6663
0.81	45	42.0492
0.828	46	52.1545
0.846	47	55.3805
0.864	48	39.3951
0.882	49	57.9865
0.9	50	50.5199
0.918	51	42.7211
0.936	52	45.8443
0.954	53	56.2645
0.972	54	61.8047
0.99	55	51.9779
1.008	56	47.2834
1.026	57	47.4005
1.044	58	57.154
1.062	59	50.2619
1.08	60	54.7656
1.098	61	70.4127
1.116	62	70.0442
1.134	63	70.0184
1.152	64	59.3333
1.17	65	65.7952
1.188	66	63.5041
1.206	67	72.205
1.224	68	68.2507
1.242	69	72.3545
1.26	70	70.6321
1.278	71	61.7856
1.296	72	70.7528
1.314	73	81.6367
1.332	74	82.6162
1.35	75	79.419
1.368	76	71.6859
1.386	77	81.7707
1.404	78	80.7996
1.422	79	76.081
1.44	80	83.7572
1.458	81	74.3195
1.476	82	80.8021
1.494	83	90.6015
1.512	84	90.584
1.53	85	81.6067
1.548	86	80.5794
1.566	87	94.8674
1.584	88	85.0072
1.602	89	92.7334
1.62	90	99.1294
1.638	91	92.7728
1.656	92	95.1461
1.674	93	100.174
1.692	94	92.7912
1.71	95	103.479
1.728	96	93.9687
1.746	97	103.295
1.764	98	101.684
1.782	99	107.219
